<?xml version='1.0' encoding='UTF-8'?>
<types:mule xmlns:types="http://www.mulesoft.org/schema/mule/types">
  <types:catalog>
    <types:type name="auto_efe2990b-a175-4d4e-88b8-3450ed19066a_Input-Payload" format="json">
      <types:shape format="weave" autogeneratedOrigin="5e2a6057-94fa-48d8-b65c-b07c389822c5"><![CDATA[%dw 2.0

type auto_efe2990b_a175_4d4e_88b8_3450ed19066a_Input_Payload = {|
  userDetails?: {|
    page?: Number {"typeId": "int"}, 
    per_page?: Number {"typeId": "int"}, 
    total?: Number {"typeId": "int"}, 
    total_pages?: Number {"typeId": "int"}, 
    data?: Array<{|      id?: Number {"typeId": "int"},       email?: String,       first_name?: String,       last_name?: String,       avatar?: String    |}>, 
    support?: {|
      url?: String, 
      text?: String
    |}
  |}
|} {"example": "{\\\"userDetails\\\":{\\\"page\\\":2,\\\"per_page\\\":6,\\\"total\\\":12,\\\"total_pages\\\":2,\\\"data\\\":[{\\\"id\\\":7,\\\"email\\\":\\\"michael.lawson@reqres.in\\\",\\\"first_name\\\":\\\"Michael\\\",\\\"last_name\\\":\\\"Lawson\\\",\\\"avatar\\\":\\\"https:\\/\\/reqres.in\\/img\\/faces\\/7-image.jpg\\\"}],\\\"support\\\":{\\\"url\\\":\\\"https:\\/\\/contentcaddy.io?utm_source=reqres&utm_medium=json&utm_campaign=referral\\\",\\\"text\\\":\\\"Tired of writing endless social media content? Let Content Caddy generate it for you.\\\"}}}"}

]]></types:shape>
    </types:type>
    <types:type name="auto_13624022-7228-42b0-8e5f-ace127ae2435_Input-Payload" format="java">
      <types:shape format="weave" example="weave/autogenerated/13624022-7228-42b0-8e5f-ace127ae2435/Input-Payload.wev" autogeneratedOrigin="75ee93af-aa2b-4c4c-be9f-5e94a878841b"><![CDATA[%dw 2.0

type auto_13624022_7228_42b0_8e5f_ace127ae2435_Input_Payload = {|  |} {"class": "java.lang.Object",
"typeAlias": "Object",
"typeId": "java.lang.Object"}

]]></types:shape>
    </types:type>
    <types:type name="auto_efe2990b-a175-4d4e-88b8-3450ed19066a_Input-Attributes" format="java">
      <types:shape format="weave" example="weave/autogenerated/efe2990b-a175-4d4e-88b8-3450ed19066a/Input-Attributes.wev" autogeneratedOrigin="5e2a6057-94fa-48d8-b65c-b07c389822c5"><![CDATA[%dw 2.0

type auto_efe2990b_a175_4d4e_88b8_3450ed19066a_Input_Attributes = {|
  statusCode: Number, 
  reasonPhrase: String, 
  headers: { _?: String }
|} {"typeId": "org.mule.extension.http.api.HttpResponseAttributes",
"typeAlias": "HttpResponseAttributes"}

]]></types:shape>
    </types:type>
    <types:type name="auto_13624022-7228-42b0-8e5f-ace127ae2435_Input-Attributes" format="java">
      <types:shape format="weave" example="weave/autogenerated/13624022-7228-42b0-8e5f-ace127ae2435/Input-Attributes.wev" autogeneratedOrigin="75ee93af-aa2b-4c4c-be9f-5e94a878841b"><![CDATA[%dw 2.0

type auto_13624022_7228_42b0_8e5f_ace127ae2435_Input_Attributes = {|
  clientCertificate?: {|
    publicKey?: {|  |}, 
    "type"?: String, 
    encoded?: Binary
  |}, 
  headers: {|  |}, 
  listenerPath: String, 
  method: String, 
  queryParams: {| page: Number |}, 
  queryString: String, 
  relativePath: String, 
  remoteAddress: String, 
  requestPath: String, 
  requestUri: String, 
  scheme: String, 
  uriParams: {|  |}, 
  version: String, 
  localAddress: String
|}

]]></types:shape>
    </types:type>
    <types:type name="auto_efe2990b-a175-4d4e-88b8-3450ed19066a_Input-Variables-startLogger" format="json">
      <types:shape format="weave" example="weave/autogenerated/efe2990b-a175-4d4e-88b8-3450ed19066a/Input-Variables-startLogger.wev" autogeneratedOrigin="5e2a6057-94fa-48d8-b65c-b07c389822c5"><![CDATA[%dw 2.0

type auto_efe2990b_a175_4d4e_88b8_3450ed19066a_Input_Variables_startLogger = {|
  flowName: String, 
  status: String, 
  correlationID: String
|}

]]></types:shape>
    </types:type>
    <types:type name="auto_13624022-7228-42b0-8e5f-ace127ae2435_Input-Variables-outboundHeaders" format="java">
      <types:shape format="weave" example="weave/autogenerated/13624022-7228-42b0-8e5f-ace127ae2435/Input-Variables-outboundHeaders.wev" autogeneratedOrigin="75ee93af-aa2b-4c4c-be9f-5e94a878841b"><![CDATA[%dw 2.0

type auto_13624022_7228_42b0_8e5f_ace127ae2435_Input_Variables_outboundHeaders = {|  |}

]]></types:shape>
    </types:type>
    <types:type name="auto_efe2990b-a175-4d4e-88b8-3450ed19066a_Input-Variables-page" format="java">
      <types:shape format="raml" autogeneratedOrigin="5e2a6057-94fa-48d8-b65c-b07c389822c5"><![CDATA[#%RAML 1.0 DataType
type: number]]></types:shape>
    </types:type>
    <types:type name="auto_13624022-7228-42b0-8e5f-ace127ae2435_Input-Variables-httpStatus" format="java">
      <types:shape format="raml" autogeneratedOrigin="75ee93af-aa2b-4c4c-be9f-5e94a878841b"><![CDATA[#%RAML 1.0 DataType
type: string]]></types:shape>
    </types:type>
    <types:type name="auto_efe2990b-a175-4d4e-88b8-3450ed19066a_Input-Variables-outboundHeaders" format="java">
      <types:shape format="weave" example="weave/autogenerated/efe2990b-a175-4d4e-88b8-3450ed19066a/Input-Variables-outboundHeaders.wev" autogeneratedOrigin="5e2a6057-94fa-48d8-b65c-b07c389822c5"><![CDATA[%dw 2.0

type auto_efe2990b_a175_4d4e_88b8_3450ed19066a_Input_Variables_outboundHeaders = {|  |}

]]></types:shape>
    </types:type>
    <types:type name="auto_efe2990b-a175-4d4e-88b8-3450ed19066a_Input-Variables-httpStatus" format="java">
      <types:shape format="raml" autogeneratedOrigin="5e2a6057-94fa-48d8-b65c-b07c389822c5"><![CDATA[#%RAML 1.0 DataType
type: string]]></types:shape>
    </types:type>
    <types:type name="auto_efe2990b-a175-4d4e-88b8-3450ed19066a_Output-Payload" format="json">
      <types:shape format="weave" autogeneratedOrigin="5e2a6057-94fa-48d8-b65c-b07c389822c5"><![CDATA[%dw 2.0

type auto_efe2990b_a175_4d4e_88b8_3450ed19066a_Output_Payload = {|
  userDetails?: {|
    page?: Number {"typeId": "int"}, 
    per_page?: Number {"typeId": "int"}, 
    total?: Number {"typeId": "int"}, 
    total_pages?: Number {"typeId": "int"}, 
    data?: Array<{|      id?: Number {"typeId": "int"},       email?: String,       first_name?: String,       last_name?: String,       avatar?: String    |}>, 
    support?: {|
      url?: String, 
      text?: String
    |}
  |}
|} {"example": "{\\\"userDetails\\\":{\\\"page\\\":2,\\\"per_page\\\":6,\\\"total\\\":12,\\\"total_pages\\\":2,\\\"data\\\":[{\\\"id\\\":7,\\\"email\\\":\\\"michael.lawson@reqres.in\\\",\\\"first_name\\\":\\\"Michael\\\",\\\"last_name\\\":\\\"Lawson\\\",\\\"avatar\\\":\\\"https:\\/\\/reqres.in\\/img\\/faces\\/7-image.jpg\\\"}],\\\"support\\\":{\\\"url\\\":\\\"https:\\/\\/contentcaddy.io?utm_source=reqres&utm_medium=json&utm_campaign=referral\\\",\\\"text\\\":\\\"Tired of writing endless social media content? Let Content Caddy generate it for you.\\\"}}}"}

]]></types:shape>
    </types:type>
    <types:type name="auto_13624022-7228-42b0-8e5f-ace127ae2435_Output-Payload" format="java">
      <types:shape format="weave" example="weave/autogenerated/13624022-7228-42b0-8e5f-ace127ae2435/Output-Payload.wev" autogeneratedOrigin="75ee93af-aa2b-4c4c-be9f-5e94a878841b"><![CDATA[%dw 2.0

type auto_13624022_7228_42b0_8e5f_ace127ae2435_Output_Payload = {|  |} {"class": "java.lang.Object",
"typeAlias": "Object",
"typeId": "java.lang.Object"}

]]></types:shape>
    </types:type>
    <types:type name="auto_efe2990b-a175-4d4e-88b8-3450ed19066a_Output-Attributes" format="java">
      <types:shape format="weave" example="weave/autogenerated/efe2990b-a175-4d4e-88b8-3450ed19066a/Output-Attributes.wev" autogeneratedOrigin="5e2a6057-94fa-48d8-b65c-b07c389822c5"><![CDATA[%dw 2.0

type auto_efe2990b_a175_4d4e_88b8_3450ed19066a_Output_Attributes = {|
  statusCode: Number, 
  reasonPhrase: String, 
  headers: { _?: String }
|} {"typeId": "org.mule.extension.http.api.HttpResponseAttributes",
"typeAlias": "HttpResponseAttributes"}

]]></types:shape>
    </types:type>
    <types:type name="auto_13624022-7228-42b0-8e5f-ace127ae2435_Output-Attributes" format="java">
      <types:shape format="weave" example="weave/autogenerated/13624022-7228-42b0-8e5f-ace127ae2435/Output-Attributes.wev" autogeneratedOrigin="75ee93af-aa2b-4c4c-be9f-5e94a878841b"><![CDATA[%dw 2.0

type auto_13624022_7228_42b0_8e5f_ace127ae2435_Output_Attributes = {|
  clientCertificate?: {|
    publicKey?: {|  |}, 
    "type"?: String, 
    encoded?: Binary
  |}, 
  headers: {|  |}, 
  listenerPath: String, 
  method: String, 
  queryParams: {| page: Number |}, 
  queryString: String, 
  relativePath: String, 
  remoteAddress: String, 
  requestPath: String, 
  requestUri: String, 
  scheme: String, 
  uriParams: {|  |}, 
  version: String, 
  localAddress: String
|}

]]></types:shape>
    </types:type>
    <types:type name="auto_efe2990b-a175-4d4e-88b8-3450ed19066a_Output-Variables-startLogger" format="json">
      <types:shape format="weave" example="weave/autogenerated/efe2990b-a175-4d4e-88b8-3450ed19066a/Output-Variables-startLogger.wev" autogeneratedOrigin="5e2a6057-94fa-48d8-b65c-b07c389822c5"><![CDATA[%dw 2.0

type auto_efe2990b_a175_4d4e_88b8_3450ed19066a_Output_Variables_startLogger = {|
  flowName: String, 
  status: String, 
  correlationID: String
|}

]]></types:shape>
    </types:type>
    <types:type name="auto_13624022-7228-42b0-8e5f-ace127ae2435_Output-Variables-startLogger" format="json">
      <types:shape format="weave" example="weave/autogenerated/13624022-7228-42b0-8e5f-ace127ae2435/Output-Variables-startLogger.wev" autogeneratedOrigin="75ee93af-aa2b-4c4c-be9f-5e94a878841b"><![CDATA[%dw 2.0

type auto_13624022_7228_42b0_8e5f_ace127ae2435_Output_Variables_startLogger = {|
  flowName: String, 
  status: String, 
  correlationID: String
|}

]]></types:shape>
    </types:type>
    <types:type name="auto_efe2990b-a175-4d4e-88b8-3450ed19066a_Output-Variables-endLogger" format="json">
      <types:shape format="weave" example="weave/autogenerated/efe2990b-a175-4d4e-88b8-3450ed19066a/Output-Variables-endLogger.wev" autogeneratedOrigin="5e2a6057-94fa-48d8-b65c-b07c389822c5"><![CDATA[%dw 2.0

type auto_efe2990b_a175_4d4e_88b8_3450ed19066a_Output_Variables_endLogger = {|
  flowName: String, 
  status: String, 
  correlationID: String
|}

]]></types:shape>
    </types:type>
    <types:type name="auto_efe2990b-a175-4d4e-88b8-3450ed19066a_Output-Variables-page" format="java">
      <types:shape format="raml" autogeneratedOrigin="5e2a6057-94fa-48d8-b65c-b07c389822c5"><![CDATA[#%RAML 1.0 DataType
type: number]]></types:shape>
    </types:type>
    <types:type name="auto_13624022-7228-42b0-8e5f-ace127ae2435_Output-Variables-outboundHeaders" format="java">
      <types:shape format="weave" example="weave/autogenerated/13624022-7228-42b0-8e5f-ace127ae2435/Output-Variables-outboundHeaders.wev" autogeneratedOrigin="75ee93af-aa2b-4c4c-be9f-5e94a878841b"><![CDATA[%dw 2.0

type auto_13624022_7228_42b0_8e5f_ace127ae2435_Output_Variables_outboundHeaders = {|  |}

]]></types:shape>
    </types:type>
    <types:type name="auto_13624022-7228-42b0-8e5f-ace127ae2435_Output-Variables-httpStatus" format="java">
      <types:shape format="raml" autogeneratedOrigin="75ee93af-aa2b-4c4c-be9f-5e94a878841b"><![CDATA[#%RAML 1.0 DataType
type: string]]></types:shape>
    </types:type>
    <types:type name="auto_efe2990b-a175-4d4e-88b8-3450ed19066a_Output-Variables-httpStatus" format="java">
      <types:shape format="raml" autogeneratedOrigin="5e2a6057-94fa-48d8-b65c-b07c389822c5"><![CDATA[#%RAML 1.0 DataType
type: string]]></types:shape>
    </types:type>
  </types:catalog>
  <types:enrichment select="#efe2990b-a175-4d4e-88b8-3450ed19066a">
    <types:processor-declaration>
      <types:input-event>
        <types:message>
          <types:payload type="auto_efe2990b-a175-4d4e-88b8-3450ed19066a_Input-Payload"/>
          <types:attributes type="auto_efe2990b-a175-4d4e-88b8-3450ed19066a_Input-Attributes"/>
        </types:message>
        <types:variables>
          <types:variable name="outboundHeaders" type="auto_efe2990b-a175-4d4e-88b8-3450ed19066a_Input-Variables-outboundHeaders"/>
          <types:variable name="startLogger" type="auto_efe2990b-a175-4d4e-88b8-3450ed19066a_Input-Variables-startLogger"/>
          <types:variable name="httpStatus" type="auto_efe2990b-a175-4d4e-88b8-3450ed19066a_Input-Variables-httpStatus"/>
          <types:variable name="page" type="auto_efe2990b-a175-4d4e-88b8-3450ed19066a_Input-Variables-page"/>
        </types:variables>
      </types:input-event>
      <types:output-event>
        <types:message>
          <types:payload type="auto_efe2990b-a175-4d4e-88b8-3450ed19066a_Output-Payload"/>
          <types:attributes type="auto_efe2990b-a175-4d4e-88b8-3450ed19066a_Output-Attributes"/>
        </types:message>
        <types:variables>
          <types:variable name="outboundHeaders" type="null"/>
          <types:variable name="startLogger" type="auto_efe2990b-a175-4d4e-88b8-3450ed19066a_Output-Variables-startLogger"/>
          <types:variable name="endLogger" type="auto_efe2990b-a175-4d4e-88b8-3450ed19066a_Output-Variables-endLogger"/>
          <types:variable name="httpStatus" type="auto_efe2990b-a175-4d4e-88b8-3450ed19066a_Output-Variables-httpStatus"/>
          <types:variable name="page" type="auto_efe2990b-a175-4d4e-88b8-3450ed19066a_Output-Variables-page"/>
        </types:variables>
      </types:output-event>
    </types:processor-declaration>
  </types:enrichment>
  <types:enrichment select="#13624022-7228-42b0-8e5f-ace127ae2435">
    <types:processor-declaration>
      <types:input-event>
        <types:message>
          <types:payload type="auto_13624022-7228-42b0-8e5f-ace127ae2435_Input-Payload"/>
          <types:attributes type="auto_13624022-7228-42b0-8e5f-ace127ae2435_Input-Attributes"/>
        </types:message>
        <types:variables>
          <types:variable name="outboundHeaders" type="auto_13624022-7228-42b0-8e5f-ace127ae2435_Input-Variables-outboundHeaders"/>
          <types:variable name="httpStatus" type="auto_13624022-7228-42b0-8e5f-ace127ae2435_Input-Variables-httpStatus"/>
        </types:variables>
      </types:input-event>
      <types:output-event>
        <types:message>
          <types:payload type="auto_13624022-7228-42b0-8e5f-ace127ae2435_Output-Payload"/>
          <types:attributes type="auto_13624022-7228-42b0-8e5f-ace127ae2435_Output-Attributes"/>
        </types:message>
        <types:variables>
          <types:variable name="outboundHeaders" type="auto_13624022-7228-42b0-8e5f-ace127ae2435_Output-Variables-outboundHeaders"/>
          <types:variable name="startLogger" type="auto_13624022-7228-42b0-8e5f-ace127ae2435_Output-Variables-startLogger"/>
          <types:variable name="httpStatus" type="auto_13624022-7228-42b0-8e5f-ace127ae2435_Output-Variables-httpStatus"/>
        </types:variables>
      </types:output-event>
    </types:processor-declaration>
  </types:enrichment>
</types:mule>